^C:\USERS\MIFFY\PICTURES\IMD\OF_V0.12.0_VS_RELEASE\APPS\MYAPPS\MY-SWEET-COLLECTOR\OBJ\X64\DEBUG\BUILD\SRC\DEBUG\GAMEOBJECT.OBJ|C:\USERS\MIFFY\PICTURES\IMD\OF_V0.12.0_VS_RELEASE\APPS\MYAPPS\MY-SWEET-COLLECTOR\OBJ\X64\DEBUG\BUILD\SRC\DEBUG\ITEM.OBJ|C:\USERS\MIFFY\PICTURES\IMD\OF_V0.12.0_VS_RELEASE\APPS\MYAPPS\MY-SWEET-COLLECTOR\OBJ\X64\DEBUG\BUILD\SRC\DEBUG\MAIN.OBJ|C:\USERS\MIFFY\PICTURES\IMD\OF_V0.12.0_VS_RELEASE\APPS\MYAPPS\MY-SWEET-COLLECTOR\OBJ\X64\DEBUG\BUILD\SRC\DEBUG\OFAPP.OBJ|C:\USERS\MIFFY\PICTURES\IMD\OF_V0.12.0_VS_RELEASE\APPS\MYAPPS\MY-SWEET-COLLECTOR\OBJ\X64\DEBUG\BUILD\SRC\DEBUG\PLAYER.OBJ|C:\USERS\MIFFY\PICTURES\IMD\OF_V0.12.0_VS_RELEASE\APPS\MYAPPS\MY-SWEET-COLLECTOR\OBJ\X64\DEBUG\ICON.RES|C:\USERS\MIFFY\PICTURES\IMD\OF_V0.12.0_VS_RELEASE\LIBS\OPENFRAMEWORKSCOMPILED\LIB\VS\X64\OPENFRAMEWORKSLIB_DEBUG.LIB
C:\USERS\MIFFY\PICTURES\IMD\OF_V0.12.0_VS_RELEASE\LIBS\CAIRO\LIB\VS\X64\CAIRO-STATIC.LIB
C:\USERS\MIFFY\PICTURES\IMD\OF_V0.12.0_VS_RELEASE\LIBS\CAIRO\LIB\VS\X64\PIXMAN-1.LIB
C:\USERS\MIFFY\PICTURES\IMD\OF_V0.12.0_VS_RELEASE\LIBS\CAIRO\LIB\VS\X64\LIBPNG.LIB
C:\USERS\MIFFY\PICTURES\IMD\OF_V0.12.0_VS_RELEASE\LIBS\CAIRO\LIB\VS\X64\ZLIB.LIB
C:\PROGRAM FILES (X86)\WINDOWS KITS\10\LIB\10.0.22621.0\UM\X64\MSIMG32.LIB
C:\PROGRAM FILES (X86)\WINDOWS KITS\10\LIB\10.0.22621.0\UM\X64\OPENGL32.LIB
C:\PROGRAM FILES (X86)\WINDOWS KITS\10\LIB\10.0.22621.0\UM\X64\KERNEL32.LIB
C:\PROGRAM FILES (X86)\WINDOWS KITS\10\LIB\10.0.22621.0\UM\X64\SETUPAPI.LIB
C:\PROGRAM FILES (X86)\WINDOWS KITS\10\LIB\10.0.22621.0\UM\X64\VFW32.LIB
C:\PROGRAM FILES (X86)\WINDOWS KITS\10\LIB\10.0.22621.0\UM\X64\COMCTL32.LIB
C:\USERS\MIFFY\PICTURES\IMD\OF_V0.12.0_VS_RELEASE\LIBS\RTAUDIO\LIB\VS\X64\RTAUDIOD.LIB
C:\USERS\MIFFY\PICTURES\IMD\OF_V0.12.0_VS_RELEASE\LIBS\VIDEOINPUT\LIB\VS\X64\VIDEOINPUTD.LIB
C:\USERS\MIFFY\PICTURES\IMD\OF_V0.12.0_VS_RELEASE\LIBS\FREETYPE\LIB\VS\X64\LIBFREETYPE.LIB
C:\USERS\MIFFY\PICTURES\IMD\OF_V0.12.0_VS_RELEASE\LIBS\FREEIMAGE\LIB\VS\X64\FREEIMAGE.LIB
C:\PROGRAM FILES (X86)\WINDOWS KITS\10\LIB\10.0.22621.0\UM\X64\DSOUND.LIB
C:\PROGRAM FILES (X86)\WINDOWS KITS\10\LIB\10.0.22621.0\UM\X64\USER32.LIB
C:\PROGRAM FILES (X86)\WINDOWS KITS\10\LIB\10.0.22621.0\UM\X64\GDI32.LIB
C:\PROGRAM FILES (X86)\WINDOWS KITS\10\LIB\10.0.22621.0\UM\X64\WINSPOOL.LIB
C:\PROGRAM FILES (X86)\WINDOWS KITS\10\LIB\10.0.22621.0\UM\X64\COMDLG32.LIB
C:\PROGRAM FILES (X86)\WINDOWS KITS\10\LIB\10.0.22621.0\UM\X64\ADVAPI32.LIB
C:\PROGRAM FILES (X86)\WINDOWS KITS\10\LIB\10.0.22621.0\UM\X64\SHELL32.LIB
C:\PROGRAM FILES (X86)\WINDOWS KITS\10\LIB\10.0.22621.0\UM\X64\OLE32.LIB
C:\PROGRAM FILES (X86)\WINDOWS KITS\10\LIB\10.0.22621.0\UM\X64\OLEAUT32.LIB
C:\PROGRAM FILES (X86)\WINDOWS KITS\10\LIB\10.0.22621.0\UM\X64\UUID.LIB
C:\USERS\MIFFY\PICTURES\IMD\OF_V0.12.0_VS_RELEASE\LIBS\GLEW\LIB\VS\X64\GLEW32S.LIB
C:\USERS\MIFFY\PICTURES\IMD\OF_V0.12.0_VS_RELEASE\LIBS\FMOD\LIB\VS\X64\FMOD64_VC.LIB
C:\USERS\MIFFY\PICTURES\IMD\OF_V0.12.0_VS_RELEASE\LIBS\OPENSSL\LIB\VS\X64\LIBSSL.LIB
C:\USERS\MIFFY\PICTURES\IMD\OF_V0.12.0_VS_RELEASE\LIBS\OPENSSL\LIB\VS\X64\LIBCRYPTO.LIB
C:\PROGRAM FILES (X86)\WINDOWS KITS\10\LIB\10.0.22621.0\UM\X64\CRYPT32.LIB
C:\USERS\MIFFY\PICTURES\IMD\OF_V0.12.0_VS_RELEASE\LIBS\CURL\LIB\VS\X64\LIBCURL.LIB
C:\USERS\MIFFY\PICTURES\IMD\OF_V0.12.0_VS_RELEASE\LIBS\URIPARSER\LIB\VS\X64\URIPARSER.LIB
C:\USERS\MIFFY\PICTURES\IMD\OF_V0.12.0_VS_RELEASE\LIBS\PUGIXML\LIB\VS\X64\PUGIXMLD.LIB
C:\PROGRAM FILES (X86)\WINDOWS KITS\10\LIB\10.0.22621.0\UM\X64\WS2_32.LIB
C:\USERS\MIFFY\PICTURES\IMD\OF_V0.12.0_VS_RELEASE\LIBS\TESS2\LIB\VS\X64\TESS2.LIB
C:\USERS\MIFFY\PICTURES\IMD\OF_V0.12.0_VS_RELEASE\LIBS\GLFW\LIB\VS\X64\GLFW3.LIB
C:\PROGRAM FILES (X86)\WINDOWS KITS\10\LIB\10.0.22621.0\UM\X64\WINMM.LIB
C:\PROGRAM FILES (X86)\WINDOWS KITS\10\LIB\10.0.22621.0\UM\X64\ODBC32.LIB
C:\PROGRAM FILES (X86)\WINDOWS KITS\10\LIB\10.0.22621.0\UM\X64\ODBCCP32.LIB
C:\PROGRAM FILES (X86)\WINDOWS KITS\10\LIB\10.0.22621.0\UM\X64\WLDAP32.LIB
C:\PROGRAM FILES (X86)\WINDOWS KITS\10\LIB\10.0.22621.0\UM\X64\MF.LIB
C:\PROGRAM FILES (X86)\WINDOWS KITS\10\LIB\10.0.22621.0\UM\X64\MFPLAT.LIB
C:\PROGRAM FILES (X86)\WINDOWS KITS\10\LIB\10.0.22621.0\UM\X64\MFUUID.LIB
C:\PROGRAM FILES (X86)\WINDOWS KITS\10\LIB\10.0.22621.0\UM\X64\D3D11.LIB
C:\PROGRAM FILES (X86)\WINDOWS KITS\10\LIB\10.0.22621.0\UM\X64\MFREADWRITE.LIB
C:\PROGRAM FILES (X86)\WINDOWS KITS\10\LIB\10.0.22621.0\UM\X64\XAUDIO2.LIB
C:\USERS\MIFFY\PICTURES\IMD\OF_V0.12.0_VS_RELEASE\APPS\MYAPPS\MY-SWEET-COLLECTOR\OBJ\X64\DEBUG\ICON.RES
C:\USERS\MIFFY\PICTURES\IMD\OF_V0.12.0_VS_RELEASE\APPS\MYAPPS\MY-SWEET-COLLECTOR\OBJ\X64\DEBUG\BUILD\SRC\DEBUG\MAIN.OBJ
C:\USERS\MIFFY\PICTURES\IMD\OF_V0.12.0_VS_RELEASE\APPS\MYAPPS\MY-SWEET-COLLECTOR\OBJ\X64\DEBUG\BUILD\SRC\DEBUG\OFAPP.OBJ
C:\USERS\MIFFY\PICTURES\IMD\OF_V0.12.0_VS_RELEASE\APPS\MYAPPS\MY-SWEET-COLLECTOR\OBJ\X64\DEBUG\BUILD\SRC\DEBUG\GAMEOBJECT.OBJ
C:\USERS\MIFFY\PICTURES\IMD\OF_V0.12.0_VS_RELEASE\APPS\MYAPPS\MY-SWEET-COLLECTOR\OBJ\X64\DEBUG\BUILD\SRC\DEBUG\ITEM.OBJ
C:\USERS\MIFFY\PICTURES\IMD\OF_V0.12.0_VS_RELEASE\APPS\MYAPPS\MY-SWEET-COLLECTOR\OBJ\X64\DEBUG\BUILD\SRC\DEBUG\PLAYER.OBJ
C:\USERS\MIFFY\PICTURES\IMD\OF_V0.12.0_VS_RELEASE\LIBS\OPENFRAMEWORKSCOMPILED\LIB\VS\X64\OPENFRAMEWORKSLIB_DEBUG.LIB
C:\PROGRAM FILES\MICROSOFT VISUAL STUDIO\2022\COMMUNITY\VC\TOOLS\MSVC\14.37.32822\BIN\HOSTX64\X64\1033\LINKUI.DLL
C:\WINDOWS\GLOBALIZATION\SORTING\SORTDEFAULT.NLS
C:\USERS\MIFFY\PICTURES\IMD\OF_V0.12.0_VS_RELEASE\LIBS\OPENFRAMEWORKSCOMPILED\LIB\VS\X64\OPENFRAMEWORKSLIB_DEBUG.PDB
C:\PROGRAM FILES\MICROSOFT VISUAL STUDIO\2022\COMMUNITY\VC\TOOLS\MSVC\14.37.32822\LIB\X64\MSVCPRTD.LIB
C:\PROGRAM FILES\MICROSOFT VISUAL STUDIO\2022\COMMUNITY\VC\TOOLS\MSVC\14.37.32822\LIB\X64\MSVCRTD.LIB
C:\PROGRAM FILES\MICROSOFT VISUAL STUDIO\2022\COMMUNITY\VC\TOOLS\MSVC\14.37.32822\LIB\X64\OLDNAMES.LIB
C:\PROGRAM FILES\MICROSOFT VISUAL STUDIO\2022\COMMUNITY\VC\TOOLS\MSVC\14.37.32822\LIB\X64\VCRUNTIMED.LIB
C:\PROGRAM FILES (X86)\WINDOWS KITS\10\LIB\10.0.22621.0\UCRT\X64\UCRTD.LIB
C:\PROGRAM FILES\MICROSOFT VISUAL STUDIO\2022\COMMUNITY\VC\TOOLS\MSVC\14.37.32822\BIN\HOSTX64\X64\CVTRES.EXE
C:\WINDOWS\SYSTEM32\TZRES.DLL
C:\USERS\MIFFY\PICTURES\IMD\OF_V0.12.0_VS_RELEASE\APPS\MYAPPS\MY-SWEET-COLLECTOR\OBJ\X64\DEBUG\VC143.PDB
